Data-based Statistical Decision Model
…
# predict using 1-SE rule lambda, default behavior
predict(fit_lasso_cv, X)

Tidying the output using broom

Sometimes, the output from glmnet() can be overwhelming. The broom package can help with that.

library(broom)
# the output from the commented line would be immense
# fit_lasso_cv
tidy(fit_lasso_cv)

## # A tibble: 74 x 6
##    lambda estimate std.error conf.low conf.high nzero
##     <dbl>    <dbl>     <dbl>    <dbl>     <dbl> <int>
##  1   255.  202686.    31346.  171340.   234031.     0
##  2   233.  195216.    32080.  163135.   227296.     1
##  3   212.  187389.    31406.  155983.   218795.     2
##  4   193.  180427.    30058.  150369.   210485.     2
##  5   176.  174081.    28967.  145114.   203048.     3
##  6   160.  167065.    27815.  139250.   194879.     4
##  7   146.  160044.    26532.  133512.   186577.     4
##  8   133.  153992.    25389.  128603.   179381.     4
##  9   121.  148889.    24385.  124504.   173274.     4
## 10   111.  144617.    23474.  121143.   168091.     4
## # ... with 64 more rows
…
